{
  "menus": [
    {
      "category": "Fashion",
      "subCategories": [
        {
          "name": "Men's Top wear",
          "url": "http:cars",
          "subCategories": [
            {
              "name": "Men's TShirt",
              "url": "http:cars"
            }
          ]
        },
        {
          "name": "Men's Bottom wear",
          "url": "http:cars",
          "subCategories": [
            {
              "name": "Men's Shorts",
              "url": "http:cars"
            }
          ]
        }
      ]
    },
    {
      "category": "Men",
      "subCategories": [
        {
          "name": "Footwear",
          "url": "http:bike",
          "subCategories": [
            {
              "name": "Lofers",
              "url": "http:cars",
              "subCategories": [
                {
                  "name": "Leather Lofers",
                  "url": "http:cars"
                }
              ]
            }
          ]
        },
        {
          "name": "Winter wear",
          "url": "http:bike"
        }
      ]
    },
    {
      "category": "Electronics",
      "subCategories": [
        {
          "name": "TV",
          "url": "http:bike"
        },
        {
          "name": "Fridge",
          "url": "http:bike"
        }
      ]
    }
  ],
  "product": [
    {
      "id": "SAMSUNG tv",
      "name": "SAMSUNG tv",
      "description": "First product desc",
      "price": {
        "price": "567",
        "discountedPrice": "756",
        "discount": "0"
      },
      "images": [
        "https://purepng.com/public/uploads/large/purepng.com-bicyclebicyclesbicyclebikecyclehuman-poweredpedal-drivensingle-track-vehicletwo-wheels-1701528100146isxs4.png"
      ],
      "_class": "com.ecom.product.entity.Product"
    }
  ],
  "products": {
    "totalElements": 20,
    "totalPages": 2,
    "first": true,
    "last": false,
    "size": 10,
    "number": 1,
    "data": [
      {
        "id": "SAMSUNG tv",
        "name": "SAMSUNG tv",
        "description": "First product desc",
        "price": {
          "price": "567",
          "discountedPrice": "756",
          "discount": "0"
        },
        "images": [
          "https://purepng.com/public/uploads/large/purepng.com-bicyclebicyclesbicyclebikecyclehuman-poweredpedal-drivensingle-track-vehicletwo-wheels-1701528100146isxs4.png"
        ],
        "_class": "com.ecom.product.entity.Product"
      },
      {
        "id": "Videocon",
        "name": "Videocon",
        "description": "First product desc",
        "price": {
          "price": "567",
          "discountedPrice": "756",
          "discount": "0"
        },
        "images": [
          "https://purepng.com/public/uploads/large/purepng.com-bicyclebicyclesbicyclebikecyclehuman-poweredpedal-drivensingle-track-vehicletwo-wheels-1701528100146isxs4.png"
        ],
        "_class": "com.ecom.product.entity.Product"
      },
      {
        "id": "LG",
        "name": "LG",
        "description": "First product desc",
        "price": {
          "price": "567",
          "discountedPrice": "756",
          "discount": "0"
        },
        "images": [
          "https://purepng.com/public/uploads/large/purepng.com-bicyclebicyclesbicyclebikecyclehuman-poweredpedal-drivensingle-track-vehicletwo-wheels-1701528100146isxs4.png"
        ],
        "_class": "com.ecom.product.entity.Product"
      },
      {
        "id": "One plus",
        "name": "One plus",
        "description": "First product desc",
        "price": {
          "price": "567",
          "discountedPrice": "756",
          "discount": "0"
        },
        "images": [
          "https://purepng.com/public/uploads/large/purepng.com-bicyclebicyclesbicyclebikecyclehuman-poweredpedal-drivensingle-track-vehicletwo-wheels-1701528100146isxs4.png"
        ],
        "_class": "com.ecom.product.entity.Product"
      },
      {
        "id": "RealMe",
        "name": "RealMe",
        "description": "First product desc",
        "price": {
          "price": "567",
          "discountedPrice": "756",
          "discount": "0"
        },
        "images": [
          "https://purepng.com/public/uploads/large/purepng.com-bicyclebicyclesbicyclebikecyclehuman-poweredpedal-drivensingle-track-vehicletwo-wheels-1701528100146isxs4.png"
        ],
        "_class": "com.ecom.product.entity.Product"
      },
      {
        "id": "README",
        "name": "README",
        "description": "First product desc",
        "price": {
          "price": "567",
          "discountedPrice": "756",
          "discount": "0"
        },
        "images": [
          "https://purepng.com/public/uploads/large/purepng.com-bicyclebicyclesbicyclebikecyclehuman-poweredpedal-drivensingle-track-vehicletwo-wheels-1701528100146isxs4.png"
        ],
        "_class": "com.ecom.product.entity.Product"
      }
    ]
  },
  "orders": [
    {
      "id": "SAMSUNG tv",
      "name": "SAMSUNG tv",
      "description": "First product desc",
      "deliveryDate": "2021-06-06",
      "price": {
        "price": "567",
        "discountedPrice": "756",
        "discount": "0"
      },
      "image": "https://purepng.com/public/uploads/large/purepng.com-bicyclebicyclesbicyclebikecyclehuman-poweredpedal-drivensingle-track-vehicletwo-wheels-1701528100146isxs4.png",
      "_class": "com.ecom.product.entity.Product"
    },
    {
      "id": "SAMSUNG tv",
      "name": "SAMSUNG tv",
      "description": "First product desc",
      "deliveryDate": "2021-06-01",
      "price": {
        "price": "567",
        "discountedPrice": "756",
        "discount": "0"
      },
      "image": "https://purepng.com/public/uploads/large/purepng.com-bicyclebicyclesbicyclebikecyclehuman-poweredpedal-drivensingle-track-vehicletwo-wheels-1701528100146isxs4.png",
      "_class": "com.ecom.product.entity.Product"
    }
  ],
  "users": [
    {
      "id": 1234,
      "name": "Andrew Owen",
      "age": 26,
      "eyeColor": "blue"
    },
    {
      "id": 1235,
      "name": "Susan Que",
      "age": 45,
      "eyeColor": "hazel"
    },
    {
      "id": 1236,
      "name": "John Doe",
      "age": 53,
      "eyeColor": "brown"
    }
  ],
  "admins": [
    {
      "id": 1232,
      "name": "John Owen",
      "age": 53,
      "eyeColor": "brown"
    }
  ],
  "cart": [
    {
      "id": "1",
      "name": "SAMSUNG Series 8 189 cm (75 inch) Ultra HD (4K) LED Smart Tizen TV  (UA75NU8000KXXL)",
      "description": "First product desc",
      "price": "600",
      "discountedPrice": "400",
      "discount": "0",
      "deliveryCharge": 100,
      "image": "https://purepng.com/public/uploads/large/purepng.com-bicyclebicyclesbicyclebikecyclehuman-poweredpedal-drivensingle-track-vehicletwo-wheels-1701528100146isxs4.png"
    },
    {
      "id": "2",
      "name": "SAMSUNG Series 8 189 cm (75 inch) Ultra HD (4K) LED Smart Tizen TV  (UA75NU8000KXXL)",
      "description": "First product desc",
      "price": "600",
      "discountedPrice": "400",
      "deliveryCharge": 150,
      "discount": "0",
      "image": "https://purepng.com/public/uploads/large/purepng.com-bicyclebicyclesbicyclebikecyclehuman-poweredpedal-drivensingle-track-vehicletwo-wheels-1701528100146isxs4.png"
    },
    {
      "orderId": "",
      "productId": "SAMSUNG tv",
      "name": "SAMSUNG tv",
      "image": "https://purepng.com/public/uploads/large/purepng.com-bicyclebicyclesbicyclebikecyclehuman-poweredpedal-drivensingle-track-vehicletwo-wheels-1701528100146isxs4.png",
      "price": "567",
      "discountedPrice": "756",
      "discount": "0",
      "quantity": 1,
      "deliveryCharge": 150,
      "id": "X2L6PXR"
    },
    {
      "orderId": "",
      "productId": "SAMSUNG tv",
      "name": "SAMSUNG tv",
      "image": "https://purepng.com/public/uploads/large/purepng.com-bicyclebicyclesbicyclebikecyclehuman-poweredpedal-drivensingle-track-vehicletwo-wheels-1701528100146isxs4.png",
      "price": "567",
      "discountedPrice": "756",
      "discount": "0",
      "quantity": 1,
      "deliveryCharge": 150,
      "id": "0bBPO9R"
    },
    {
      "orderId": "",
      "productId": "SAMSUNG tv",
      "name": "SAMSUNG tv",
      "image": "https://purepng.com/public/uploads/large/purepng.com-bicyclebicyclesbicyclebikecyclehuman-poweredpedal-drivensingle-track-vehicletwo-wheels-1701528100146isxs4.png",
      "price": "567",
      "discountedPrice": "756",
      "discount": "0",
      "quantity": 1,
      "deliveryCharge": 150,
      "id": "OsRgth5"
    },
    {
      "orderId": "",
      "productId": "SAMSUNG tv",
      "name": "SAMSUNG tv",
      "image": "https://purepng.com/public/uploads/large/purepng.com-bicyclebicyclesbicyclebikecyclehuman-poweredpedal-drivensingle-track-vehicletwo-wheels-1701528100146isxs4.png",
      "price": "567",
      "discountedPrice": "756",
      "discount": "0",
      "quantity": 1,
      "deliveryCharge": 150,
      "id": "89hOFA-"
    },
    {
      "orderId": "",
      "productId": "SAMSUNG tv",
      "name": "SAMSUNG tv",
      "image": "https://purepng.com/public/uploads/large/purepng.com-bicyclebicyclesbicyclebikecyclehuman-poweredpedal-drivensingle-track-vehicletwo-wheels-1701528100146isxs4.png",
      "price": "567",
      "discountedPrice": "756",
      "discount": "0",
      "quantity": 1,
      "deliveryCharge": 150,
      "id": "sBaps_r"
    },
    {
      "orderId": "",
      "productId": "SAMSUNG tv",
      "name": "SAMSUNG tv",
      "image": "https://purepng.com/public/uploads/large/purepng.com-bicyclebicyclesbicyclebikecyclehuman-poweredpedal-drivensingle-track-vehicletwo-wheels-1701528100146isxs4.png",
      "price": "567",
      "discountedPrice": "756",
      "discount": "0",
      "quantity": 1,
      "deliveryCharge": 150,
      "id": "YJZ67CB"
    },
    {
      "orderId": "",
      "productId": "SAMSUNG tv",
      "name": "SAMSUNG tv",
      "image": "https://purepng.com/public/uploads/large/purepng.com-bicyclebicyclesbicyclebikecyclehuman-poweredpedal-drivensingle-track-vehicletwo-wheels-1701528100146isxs4.png",
      "price": "567",
      "discountedPrice": "756",
      "discount": "0",
      "quantity": 1,
      "deliveryCharge": 150,
      "id": "l1IfJrE"
    }
  ],
  "address": [
    {
      "id": "ebac5bd3-9cc5-4c3a-acd8-9cfcb9714ed1",
      "firstName": "Pranay",
      "lastName": "Raut",
      "addressLine1": "VMV ROAD NAVSARI STOP",
      "addressLine2": "12344",
      "city": "AMRAVATI",
      "state": "Maharastra",
      "pincode": 411067,
      "defaultAddress": true,
      "type": "Office"
    },
    {
      "id": "b190049d-a732-4ff2-8a4e-4e853713adfc",
      "firstName": "Pranay",
      "lastName": "Raut",
      "addressLine1": "VMV ROAD NAVSARI STOP",
      "addressLine2": "Add",
      "city": "AMRAVATI",
      "state": "Maharastra",
      "pincode": 411067,
      "defaultAddress": false,
      "type": "Home"
    },
    {
      "id": "3bc22eb4-d2c4-40f4-8190-f6ba66b01832",
      "firstName": "Pranay",
      "lastName": "Raut",
      "addressLine1": "VMV ROAD NAVSARI STOP",
      "addressLine2": "ret",
      "city": "AMRAVATI",
      "state": "Maharastra",
      "pincode": 411067,
      "defaultAddress": false,
      "type": "Office",
      "mobile": "7507849345",
      "landmark": "Sarkar chowk"
    }
  ],
  "login": [
    {
      "id": "1",
      "username": "pranay",
      "password": "123"
    },
    {
      "username": "dsa",
      "password": "dsa",
      "id": "uO8Vpnc"
    },
    {
      "access_token": "asdsadasd",
      "refresh_token": "asdsadasd",
      "expires_in": "123123123123",
      "roles": "['seller']",
      "id": "_edaf7y"
    },
    {
      "access_token": "asdsadasd",
      "refresh_token": "asdsadasd",
      "expires_in": "123123123123",
      "roles": [
        "user"
      ],
      "id": "lUdUKJV"
    },
    {
      "access_token": "asdsadasd",
      "refresh_token": "asdsadasd",
      "expires_in": "123123123123",
      "roles": [
        "pranay"
      ],
      "id": "3mWXub-"
    },
    {
      "access_token": "asdsadasd",
      "refresh_token": "asdsadasd",
      "expires_in": "123123123123",
      "roles": [
        "Andrew Owen"
      ],
      "id": "OjjDoG1"
    },
    {
      "access_token": "asdsadasd",
      "refresh_token": "asdsadasd",
      "expires_in": "123123123123",
      "roles": [
        "user"
      ],
      "id": "Kym9prt"
    },
    {
      "access_token": "asdsadasd",
      "refresh_token": "asdsadasd",
      "expires_in": "123123123123",
      "roles": [
        "user"
      ],
      "id": "8-bZfJG"
    }
  ],
  "categories": [
    {
      "name": "Electronics",
      "subCategories": [
        {
          "id": "1",
          "name": "TV",
          "amount": 90,
          "prefix": "From",
          "imageUrl": "https://purepng.com/public/uploads/large/purepng.com-bicyclebicyclesbicyclebikecyclehuman-poweredpedal-drivensingle-track-vehicletwo-wheels-1701528100146isxs4.png"
        },
        {
          "id": "2",
          "name": "Mens TShirt",
          "amount": 50,
          "prefix": "From",
          "imageUrl": "https://purepng.com/public/uploads/large/purepng.com-bicyclebicyclesbicyclebikecyclehuman-poweredpedal-drivensingle-track-vehicletwo-wheels-1701528100146isxs4.png"
        },
        {
          "id": "3",
          "name": "Pets Bed",
          "amount": 60,
          "prefix": "From",
          "imageUrl": "https://purepng.com/public/uploads/large/purepng.com-bicyclebicyclesbicyclebikecyclehuman-poweredpedal-drivensingle-track-vehicletwo-wheels-1701528100146isxs4.png"
        },
        {
          "id": "4",
          "name": "Monitors",
          "amount": 10,
          "prefix": "From",
          "imageUrl": "https://purepng.com/public/uploads/large/purepng.com-bicyclebicyclesbicyclebikecyclehuman-poweredpedal-drivensingle-track-vehicletwo-wheels-1701528100146isxs4.png"
        }
      ]
    },
    {
      "name": "Cloths",
      "subCategories": [
        {
          "id": "1",
          "name": "TV",
          "amount": 90,
          "prefix": "From",
          "imageUrl": "https://png.pngtree.com/png-vector/20231016/ourmid/pngtree-blue-jeans-png-file-png-image_10198429.png"
        },
        {
          "id": "2",
          "name": "Mens TShirt",
          "amount": 50,
          "prefix": "From",
          "imageUrl": "https://png.pngtree.com/png-vector/20231016/ourmid/pngtree-blue-jeans-png-file-png-image_10198429.png"
        },
        {
          "id": "3",
          "name": "Pets Bed",
          "amount": 60,
          "prefix": "From",
          "imageUrl": "https://png.pngtree.com/png-vector/20231016/ourmid/pngtree-blue-jeans-png-file-png-image_10198429.png"
        },
        {
          "id": "4",
          "name": "Monitors",
          "amount": 10,
          "prefix": "From",
          "imageUrl": "https://png.pngtree.com/png-vector/20231016/ourmid/pngtree-blue-jeans-png-file-png-image_10198429.png"
        },
        {
          "id": "5",
          "name": "Pets Bed",
          "amount": 60,
          "prefix": "From",
          "imageUrl": "https://png.pngtree.com/png-vector/20231016/ourmid/pngtree-blue-jeans-png-file-png-image_10198429.png"
        },
        {
          "id": "6",
          "name": "Monitors",
          "amount": 10,
          "prefix": "From",
          "imageUrl": "https://png.pngtree.com/png-vector/20231016/ourmid/pngtree-blue-jeans-png-file-png-image_10198429.png"
        }
      ]
    }
  ]
}